{
  "kind": "collectionType",
  "connection": "default",
  "collectionName": "events",
  "info": {
    "name": "Event"
  },
  "options": {
    "increments": true,
    "timestamps": true
  },
  "attributes": {
    "Title": {
      "type": "string"
    },
    "Start": {
      "type": "datetime"
    },
    "End": {
      "type": "datetime"
    },
    "Description": {
      "type": "string"
    },
    "relatedBuildings": {
      "collection": "building",
      "via": "event"
    }
  }
}
